%!PS-Adobe-3.0 EPSF-3.0
%%Title: Figures/Queue.eps
%%Creator: matplotlib version 3.1.1, http://matplotlib.org/
%%CreationDate: Sun May  3 14:29:49 2020
%%Orientation: portrait
%%BoundingBox: 75.6 223.20000000000002 536.4 568.8
%%EndComments
%%BeginProlog
/mpldict 8 dict def
mpldict begin
/m { moveto } bind def
/l { lineto } bind def
/r { rlineto } bind def
/c { curveto } bind def
/cl { closepath } bind def
/box {
m
1 index 0 r
0 exch r
neg 0 r
cl
} bind def
/clipbox {
box
clip
newpath
} bind def
%!PS-Adobe-3.0 Resource-Font
%%Title: DejaVu Sans
%%Copyright: Copyright (c) 2003 by Bitstream, Inc. All Rights Reserved. Copyright (c) 2006 by Tavmjong Bah. All Rights Reserved. DejaVu changes are in public domain 
%%Creator: Converted from TrueType to type 3 by PPR
25 dict begin
/_d{bind def}bind def
/_m{moveto}_d
/_l{lineto}_d
/_cl{closepath eofill}_d
/_c{curveto}_d
/_sc{7 -1 roll{setcachedevice}{pop pop pop pop pop pop}ifelse}_d
/_e{exec}_d
/FontName /DejaVuSans def
/PaintType 0 def
/FontMatrix[.001 0 0 .001 0 0]def
/FontBBox[-1021 -463 1793 1232]def
/FontType 3 def
/Encoding [ /space /parenleft /parenright /period /zero /one /two /three /four /five /six /seven /eight /C /D /P /Q /T /a /c /e /i /k /m /n /o /p /s /t /u /v /y ] def
/FontInfo 10 dict dup begin
/FamilyName (DejaVu Sans) def
/FullName (DejaVu Sans) def
/Notice (Copyright (c) 2003 by Bitstream, Inc. All Rights Reserved. Copyright (c) 2006 by Tavmjong Bah. All Rights Reserved. DejaVu changes are in public domain ) def
/Weight (Book) def
/Version (Version 2.35) def
/ItalicAngle 0.0 def
/isFixedPitch false def
/UnderlinePosition -130 def
/UnderlineThickness 90 def
end readonly def
/CharStrings 33 dict dup begin
/.notdef 0 def
/space{318 0 0 0 0 0 _sc
}_d
/parenleft{390 0 86 -131 310 759 _sc
310 759 _m
266 683 234 609 213 536 _c
191 463 181 389 181 314 _c
181 238 191 164 213 91 _c
234 17 266 -56 310 -131 _c
232 -131 _l
183 -54 146 20 122 94 _c
98 168 86 241 86 314 _c
86 386 98 459 122 533 _c
146 607 182 682 232 759 _c
310 759 _l
_cl}_d
/parenright{390 0 80 -131 304 759 _sc
80 759 _m
158 759 _l
206 682 243 607 267 533 _c
291 459 304 386 304 314 _c
304 241 291 168 267 94 _c
243 20 206 -54 158 -131 _c
80 -131 _l
123 -56 155 17 177 91 _c
198 164 209 238 209 314 _c
209 389 198 463 177 536 _c
155 609 123 683 80 759 _c
_cl}_d
/period{318 0 107 0 210 124 _sc
107 124 _m
210 124 _l
210 0 _l
107 0 _l
107 124 _l
_cl}_d
/zero{636 0 66 -13 570 742 _sc
318 664 _m
267 664 229 639 203 589 _c
177 539 165 464 165 364 _c
165 264 177 189 203 139 _c
229 89 267 64 318 64 _c
369 64 407 89 433 139 _c
458 189 471 264 471 364 _c
471 464 458 539 433 589 _c
407 639 369 664 318 664 _c
318 742 _m
399 742 461 709 505 645 _c
548 580 570 486 570 364 _c
570 241 548 147 505 83 _c
461 19 399 -13 318 -13 _c
236 -13 173 19 130 83 _c
87 147 66 241 66 364 _c
66 486 87 580 130 645 _c
173 709 236 742 318 742 _c
_cl}_d
/one{636 0 110 0 544 729 _sc
124 83 _m
285 83 _l
285 639 _l
110 604 _l
110 694 _l
284 729 _l
383 729 _l
383 83 _l
544 83 _l
544 0 _l
124 0 _l
124 83 _l
_cl}_d
/two{{636 0 73 0 536 742 _sc
192 83 _m
536 83 _l
536 0 _l
73 0 _l
73 83 _l
110 121 161 173 226 239 _c
290 304 331 346 348 365 _c
380 400 402 430 414 455 _c
426 479 433 504 433 528 _c
433 566 419 598 392 622 _c
365 646 330 659 286 659 _c
255 659 222 653 188 643 _c
154 632 117 616 78 594 _c
78 694 _l
118 710 155 722 189 730 _c
223 738 255 742 284 742 _c
}_e{359 742 419 723 464 685 _c
509 647 532 597 532 534 _c
532 504 526 475 515 449 _c
504 422 484 390 454 354 _c
446 344 420 317 376 272 _c
332 227 271 164 192 83 _c
_cl}_e}_d
/three{{636 0 76 -13 556 742 _sc
406 393 _m
453 383 490 362 516 330 _c
542 298 556 258 556 212 _c
556 140 531 84 482 45 _c
432 6 362 -13 271 -13 _c
240 -13 208 -10 176 -4 _c
144 1 110 10 76 22 _c
76 117 _l
103 101 133 89 166 81 _c
198 73 232 69 268 69 _c
330 69 377 81 409 105 _c
441 129 458 165 458 212 _c
458 254 443 288 413 312 _c
383 336 341 349 287 349 _c
}_e{202 349 _l
202 430 _l
291 430 _l
339 430 376 439 402 459 _c
428 478 441 506 441 543 _c
441 580 427 609 401 629 _c
374 649 336 659 287 659 _c
260 659 231 656 200 650 _c
169 644 135 635 98 623 _c
98 711 _l
135 721 170 729 203 734 _c
235 739 266 742 296 742 _c
370 742 429 725 473 691 _c
517 657 539 611 539 553 _c
539 513 527 479 504 451 _c
481 423 448 403 406 393 _c
_cl}_e}_d
/four{636 0 49 0 580 729 _sc
378 643 _m
129 254 _l
378 254 _l
378 643 _l
352 729 _m
476 729 _l
476 254 _l
580 254 _l
580 172 _l
476 172 _l
476 0 _l
378 0 _l
378 172 _l
49 172 _l
49 267 _l
352 729 _l
_cl}_d
/five{{636 0 77 -13 549 729 _sc
108 729 _m
495 729 _l
495 646 _l
198 646 _l
198 467 _l
212 472 227 476 241 478 _c
255 480 270 482 284 482 _c
365 482 429 459 477 415 _c
525 370 549 310 549 234 _c
549 155 524 94 475 51 _c
426 8 357 -13 269 -13 _c
238 -13 207 -10 175 -6 _c
143 -1 111 6 77 17 _c
77 116 _l
106 100 136 88 168 80 _c
199 72 232 69 267 69 _c
}_e{323 69 368 83 401 113 _c
433 143 450 183 450 234 _c
450 284 433 324 401 354 _c
368 384 323 399 267 399 _c
241 399 214 396 188 390 _c
162 384 135 375 108 363 _c
108 729 _l
_cl}_e}_d
/six{{636 0 70 -13 573 742 _sc
330 404 _m
286 404 251 388 225 358 _c
199 328 186 286 186 234 _c
186 181 199 139 225 109 _c
251 79 286 64 330 64 _c
374 64 409 79 435 109 _c
461 139 474 181 474 234 _c
474 286 461 328 435 358 _c
409 388 374 404 330 404 _c
526 713 _m
526 623 _l
501 635 476 644 451 650 _c
425 656 400 659 376 659 _c
310 659 260 637 226 593 _c
}_e{192 549 172 482 168 394 _c
187 422 211 444 240 459 _c
269 474 301 482 336 482 _c
409 482 467 459 509 415 _c
551 371 573 310 573 234 _c
573 159 550 99 506 54 _c
462 9 403 -13 330 -13 _c
246 -13 181 19 137 83 _c
92 147 70 241 70 364 _c
70 479 97 571 152 639 _c
206 707 280 742 372 742 _c
396 742 421 739 447 735 _c
472 730 498 723 526 713 _c
_cl}_e}_d
/seven{636 0 82 0 551 729 _sc
82 729 _m
551 729 _l
551 687 _l
286 0 _l
183 0 _l
432 646 _l
82 646 _l
82 729 _l
_cl}_d
/eight{{636 0 68 -13 568 742 _sc
318 346 _m
271 346 234 333 207 308 _c
180 283 167 249 167 205 _c
167 161 180 126 207 101 _c
234 76 271 64 318 64 _c
364 64 401 76 428 102 _c
455 127 469 161 469 205 _c
469 249 455 283 429 308 _c
402 333 365 346 318 346 _c
219 388 _m
177 398 144 418 120 447 _c
96 476 85 511 85 553 _c
85 611 105 657 147 691 _c
188 725 245 742 318 742 _c
}_e{390 742 447 725 489 691 _c
530 657 551 611 551 553 _c
551 511 539 476 515 447 _c
491 418 459 398 417 388 _c
464 377 501 355 528 323 _c
554 291 568 251 568 205 _c
568 134 546 80 503 43 _c
459 5 398 -13 318 -13 _c
237 -13 175 5 132 43 _c
89 80 68 134 68 205 _c
68 251 81 291 108 323 _c
134 355 171 377 219 388 _c
183 544 _m
183 506 194 476 218 455 _c
}_e{242 434 275 424 318 424 _c
360 424 393 434 417 455 _c
441 476 453 506 453 544 _c
453 582 441 611 417 632 _c
393 653 360 664 318 664 _c
275 664 242 653 218 632 _c
194 611 183 582 183 544 _c
_cl}_e}_d
/C{{698 0 56 -13 644 742 _sc
644 673 _m
644 569 _l
610 599 575 622 537 638 _c
499 653 460 661 418 661 _c
334 661 270 635 226 584 _c
182 533 160 460 160 364 _c
160 268 182 194 226 143 _c
270 92 334 67 418 67 _c
460 67 499 74 537 90 _c
575 105 610 128 644 159 _c
644 56 _l
609 32 572 15 534 4 _c
496 -7 455 -13 412 -13 _c
302 -13 215 20 151 87 _c
}_e{87 154 56 246 56 364 _c
56 481 87 573 151 641 _c
215 708 302 742 412 742 _c
456 742 497 736 535 725 _c
573 713 610 696 644 673 _c
_cl}_e}_d
/D{770 0 98 0 711 729 _sc
197 648 _m
197 81 _l
316 81 _l
416 81 490 103 537 149 _c
583 195 607 267 607 365 _c
607 463 583 534 537 580 _c
490 625 416 648 316 648 _c
197 648 _l
98 729 _m
301 729 _l
442 729 546 699 612 641 _c
678 582 711 490 711 365 _c
711 239 677 147 611 88 _c
545 29 441 0 301 0 _c
98 0 _l
98 729 _l
_cl}_d
/P{603 0 98 0 569 729 _sc
197 648 _m
197 374 _l
321 374 _l
367 374 402 385 427 409 _c
452 433 465 467 465 511 _c
465 555 452 588 427 612 _c
402 636 367 648 321 648 _c
197 648 _l
98 729 _m
321 729 _l
402 729 464 710 506 673 _c
548 636 569 582 569 511 _c
569 439 548 384 506 348 _c
464 311 402 293 321 293 _c
197 293 _l
197 0 _l
98 0 _l
98 729 _l
_cl}_d
/Q{{787 0 56 -128 731 742 _sc
394 662 _m
322 662 265 635 223 582 _c
181 528 160 456 160 364 _c
160 272 181 199 223 146 _c
265 92 322 66 394 66 _c
465 66 522 92 564 146 _c
606 199 627 272 627 364 _c
627 456 606 528 564 582 _c
522 635 465 662 394 662 _c
532 13 _m
662 -128 _l
543 -128 _l
435 -11 _l
424 -11 416 -12 410 -12 _c
404 -12 399 -13 394 -13 _c
291 -13 209 21 148 89 _c
}_e{86 157 56 248 56 364 _c
56 479 86 571 148 639 _c
209 707 291 742 394 742 _c
496 742 577 707 639 639 _c
700 571 731 479 731 364 _c
731 279 714 206 680 146 _c
646 86 596 41 532 13 _c
_cl}_e}_d
/T{611 0 -2 0 614 729 _sc
-2 729 _m
614 729 _l
614 646 _l
355 646 _l
355 0 _l
256 0 _l
256 646 _l
-2 646 _l
-2 729 _l
_cl}_d
/a{{613 0 60 -13 522 560 _sc
343 275 _m
270 275 220 266 192 250 _c
164 233 150 205 150 165 _c
150 133 160 107 181 89 _c
202 70 231 61 267 61 _c
317 61 357 78 387 114 _c
417 149 432 196 432 255 _c
432 275 _l
343 275 _l
522 312 _m
522 0 _l
432 0 _l
432 83 _l
411 49 385 25 355 10 _c
325 -5 287 -13 243 -13 _c
187 -13 142 2 109 33 _c
76 64 60 106 60 159 _c
}_e{60 220 80 266 122 298 _c
163 329 224 345 306 345 _c
432 345 _l
432 354 _l
432 395 418 427 391 450 _c
364 472 326 484 277 484 _c
245 484 215 480 185 472 _c
155 464 127 453 100 439 _c
100 522 _l
132 534 164 544 195 550 _c
226 556 256 560 286 560 _c
365 560 424 539 463 498 _c
502 457 522 395 522 312 _c
_cl}_e}_d
/c{{550 0 55 -13 488 560 _sc
488 526 _m
488 442 _l
462 456 437 466 411 473 _c
385 480 360 484 334 484 _c
276 484 230 465 198 428 _c
166 391 150 339 150 273 _c
150 206 166 154 198 117 _c
230 80 276 62 334 62 _c
360 62 385 65 411 72 _c
437 79 462 90 488 104 _c
488 21 _l
462 9 436 0 410 -5 _c
383 -10 354 -13 324 -13 _c
242 -13 176 12 128 64 _c
}_e{79 115 55 185 55 273 _c
55 362 79 432 128 483 _c
177 534 244 560 330 560 _c
358 560 385 557 411 551 _c
437 545 463 537 488 526 _c
_cl}_e}_d
/e{{615 0 55 -13 562 560 _sc
562 296 _m
562 252 _l
149 252 _l
153 190 171 142 205 110 _c
238 78 284 62 344 62 _c
378 62 412 66 444 74 _c
476 82 509 95 541 113 _c
541 28 _l
509 14 476 3 442 -3 _c
408 -9 373 -13 339 -13 _c
251 -13 182 12 131 62 _c
80 112 55 181 55 268 _c
55 357 79 428 127 481 _c
175 533 241 560 323 560 _c
397 560 455 536 498 489 _c
}_e{540 441 562 377 562 296 _c
472 322 _m
471 371 457 410 431 440 _c
404 469 368 484 324 484 _c
274 484 234 469 204 441 _c
174 413 156 373 152 322 _c
472 322 _l
_cl}_e}_d
/i{278 0 94 0 184 760 _sc
94 547 _m
184 547 _l
184 0 _l
94 0 _l
94 547 _l
94 760 _m
184 760 _l
184 646 _l
94 646 _l
94 760 _l
_cl}_d
/k{579 0 91 0 576 760 _sc
91 760 _m
181 760 _l
181 311 _l
449 547 _l
564 547 _l
274 291 _l
576 0 _l
459 0 _l
181 267 _l
181 0 _l
91 0 _l
91 760 _l
_cl}_d
/m{{974 0 91 0 889 560 _sc
520 442 _m
542 482 569 511 600 531 _c
631 550 668 560 711 560 _c
767 560 811 540 842 500 _c
873 460 889 403 889 330 _c
889 0 _l
799 0 _l
799 327 _l
799 379 789 418 771 444 _c
752 469 724 482 686 482 _c
639 482 602 466 575 435 _c
548 404 535 362 535 309 _c
535 0 _l
445 0 _l
445 327 _l
445 379 435 418 417 444 _c
398 469 369 482 331 482 _c
}_e{285 482 248 466 221 435 _c
194 404 181 362 181 309 _c
181 0 _l
91 0 _l
91 547 _l
181 547 _l
181 462 _l
201 495 226 520 255 536 _c
283 552 317 560 357 560 _c
397 560 430 550 458 530 _c
486 510 506 480 520 442 _c
_cl}_e}_d
/n{634 0 91 0 549 560 _sc
549 330 _m
549 0 _l
459 0 _l
459 327 _l
459 379 448 417 428 443 _c
408 469 378 482 338 482 _c
289 482 251 466 223 435 _c
195 404 181 362 181 309 _c
181 0 _l
91 0 _l
91 547 _l
181 547 _l
181 462 _l
202 494 227 519 257 535 _c
286 551 320 560 358 560 _c
420 560 468 540 500 501 _c
532 462 549 405 549 330 _c
_cl}_d
/o{612 0 55 -13 557 560 _sc
306 484 _m
258 484 220 465 192 427 _c
164 389 150 338 150 273 _c
150 207 163 156 191 118 _c
219 80 257 62 306 62 _c
354 62 392 80 420 118 _c
448 156 462 207 462 273 _c
462 337 448 389 420 427 _c
392 465 354 484 306 484 _c
306 560 _m
384 560 445 534 490 484 _c
534 433 557 363 557 273 _c
557 183 534 113 490 63 _c
445 12 384 -13 306 -13 _c
227 -13 165 12 121 63 _c
77 113 55 183 55 273 _c
55 363 77 433 121 484 _c
165 534 227 560 306 560 _c
_cl}_d
/p{{635 0 91 -207 580 560 _sc
181 82 _m
181 -207 _l
91 -207 _l
91 547 _l
181 547 _l
181 464 _l
199 496 223 520 252 536 _c
281 552 316 560 356 560 _c
422 560 476 533 518 481 _c
559 428 580 359 580 273 _c
580 187 559 117 518 65 _c
476 13 422 -13 356 -13 _c
316 -13 281 -5 252 10 _c
223 25 199 49 181 82 _c
487 273 _m
487 339 473 390 446 428 _c
418 466 381 485 334 485 _c
}_e{286 485 249 466 222 428 _c
194 390 181 339 181 273 _c
181 207 194 155 222 117 _c
249 79 286 61 334 61 _c
381 61 418 79 446 117 _c
473 155 487 207 487 273 _c
_cl}_e}_d
/s{{521 0 54 -13 472 560 _sc
443 531 _m
443 446 _l
417 458 391 468 364 475 _c
336 481 308 485 279 485 _c
234 485 200 478 178 464 _c
156 450 145 430 145 403 _c
145 382 153 366 169 354 _c
185 342 217 330 265 320 _c
296 313 _l
360 299 405 279 432 255 _c
458 230 472 195 472 151 _c
472 100 452 60 412 31 _c
372 1 316 -13 246 -13 _c
216 -13 186 -10 154 -5 _c
}_e{122 0 89 8 54 20 _c
54 113 _l
87 95 120 82 152 74 _c
184 65 216 61 248 61 _c
290 61 323 68 346 82 _c
368 96 380 117 380 144 _c
380 168 371 187 355 200 _c
339 213 303 226 247 238 _c
216 245 _l
160 257 119 275 95 299 _c
70 323 58 356 58 399 _c
58 450 76 490 112 518 _c
148 546 200 560 268 560 _c
301 560 332 557 362 552 _c
391 547 418 540 443 531 _c
}_e{_cl}_e}_d
/t{392 0 27 0 368 702 _sc
183 702 _m
183 547 _l
368 547 _l
368 477 _l
183 477 _l
183 180 _l
183 135 189 106 201 94 _c
213 81 238 75 276 75 _c
368 75 _l
368 0 _l
276 0 _l
206 0 158 13 132 39 _c
106 65 93 112 93 180 _c
93 477 _l
27 477 _l
27 547 _l
93 547 _l
93 702 _l
183 702 _l
_cl}_d
/u{634 0 85 -13 543 560 _sc
85 216 _m
85 547 _l
175 547 _l
175 219 _l
175 167 185 129 205 103 _c
225 77 255 64 296 64 _c
344 64 383 79 411 110 _c
439 141 453 183 453 237 _c
453 547 _l
543 547 _l
543 0 _l
453 0 _l
453 84 _l
431 50 405 26 377 10 _c
348 -5 315 -13 277 -13 _c
214 -13 166 6 134 45 _c
101 83 85 140 85 216 _c
311 560 _m
311 560 _l
_cl}_d
/v{592 0 30 0 562 547 _sc
30 547 _m
125 547 _l
296 88 _l
467 547 _l
562 547 _l
357 0 _l
235 0 _l
30 547 _l
_cl}_d
/y{592 0 30 -207 562 547 _sc
322 -50 _m
296 -114 271 -157 247 -177 _c
223 -197 191 -207 151 -207 _c
79 -207 _l
79 -132 _l
132 -132 _l
156 -132 175 -126 189 -114 _c
203 -102 218 -75 235 -31 _c
251 9 _l
30 547 _l
125 547 _l
296 119 _l
467 547 _l
562 547 _l
322 -50 _l
_cl}_d
end readonly def

/BuildGlyph
 {exch begin
 CharStrings exch
 2 copy known not{pop /.notdef}if
 true 3 1 roll get exec
 end}_d

/BuildChar {
 1 index /Encoding get exch get
 1 index /BuildGlyph get exec
}_d

FontName currentdict end definefont pop
end
%%EndProlog
mpldict begin
75.6 223.2 translate
460.8 345.6 0 0 clipbox
gsave
0 0 m
460.8 0 l
460.8 345.6 l
0 345.6 l
cl
1.000 setgray
fill
grestore
gsave
57.6 38.016 m
414.72 38.016 l
414.72 304.128 l
57.6 304.128 l
cl
1.000 setgray
fill
grestore
0.800 setlinewidth
1 setlinejoin
0 setlinecap
[] 0 setdash
0.000 setgray
gsave
/o {
gsave
newpath
translate
0.8 setlinewidth
1 setlinejoin
0 setlinecap
0 0 m
0 -3.5 l

gsave
0.000 setgray
fill
grestore
stroke
grestore
} bind def
80.1284 38.016 o
grestore
/DejaVuSans findfont
10.000 scalefont
setfont
gsave
72.175246 23.422250 translate
0.000000 rotate
0.000000 0.000000 m /one glyphshow
6.362305 0.000000 m /period glyphshow
9.541016 0.000000 m /three glyphshow
grestore
gsave
/o {
gsave
newpath
translate
0.8 setlinewidth
1 setlinejoin
0 setlinecap
0 0 m
0 -3.5 l

gsave
0.000 setgray
fill
grestore
stroke
grestore
} bind def
143.091 38.016 o
grestore
gsave
135.137523 23.422250 translate
0.000000 rotate
0.000000 0.000000 m /one glyphshow
6.362305 0.000000 m /period glyphshow
9.541016 0.000000 m /four glyphshow
grestore
gsave
/o {
gsave
newpath
translate
0.8 setlinewidth
1 setlinejoin
0 setlinecap
0 0 m
0 -3.5 l

gsave
0.000 setgray
fill
grestore
stroke
grestore
} bind def
206.053 38.016 o
grestore
gsave
198.099800 23.422250 translate
0.000000 rotate
0.000000 0.000000 m /one glyphshow
6.362305 0.000000 m /period glyphshow
9.541016 0.000000 m /five glyphshow
grestore
gsave
/o {
gsave
newpath
translate
0.8 setlinewidth
1 setlinejoin
0 setlinecap
0 0 m
0 -3.5 l

gsave
0.000 setgray
fill
grestore
stroke
grestore
} bind def
269.015 38.016 o
grestore
gsave
261.062077 23.422250 translate
0.000000 rotate
0.000000 0.000000 m /one glyphshow
6.362305 0.000000 m /period glyphshow
9.541016 0.000000 m /six glyphshow
grestore
gsave
/o {
gsave
newpath
translate
0.8 setlinewidth
1 setlinejoin
0 setlinecap
0 0 m
0 -3.5 l

gsave
0.000 setgray
fill
grestore
stroke
grestore
} bind def
331.977 38.016 o
grestore
gsave
324.024354 23.422250 translate
0.000000 rotate
0.000000 0.000000 m /one glyphshow
6.362305 0.000000 m /period glyphshow
9.541016 0.000000 m /seven glyphshow
grestore
gsave
/o {
gsave
newpath
translate
0.8 setlinewidth
1 setlinejoin
0 setlinecap
0 0 m
0 -3.5 l

gsave
0.000 setgray
fill
grestore
stroke
grestore
} bind def
394.94 38.016 o
grestore
gsave
386.986631 23.422250 translate
0.000000 rotate
0.000000 0.000000 m /one glyphshow
6.362305 0.000000 m /period glyphshow
9.541016 0.000000 m /eight glyphshow
grestore
gsave
215.652187 9.750375 translate
0.000000 rotate
0.000000 0.000000 m /T glyphshow
6.108398 0.000000 m /i glyphshow
8.886719 0.000000 m /m glyphshow
18.627930 0.000000 m /e glyphshow
24.780273 0.000000 m /space glyphshow
27.958984 0.000000 m /parenleft glyphshow
31.860352 0.000000 m /s glyphshow
37.070312 0.000000 m /parenright glyphshow
grestore
gsave
/o {
gsave
newpath
translate
0.8 setlinewidth
1 setlinejoin
0 setlinecap
0 0 m
-3.5 0 l

gsave
0.000 setgray
fill
grestore
stroke
grestore
} bind def
57.6 50.112 o
grestore
gsave
44.240625 46.315125 translate
0.000000 rotate
0.000000 0.000000 m /four glyphshow
grestore
gsave
/o {
gsave
newpath
translate
0.8 setlinewidth
1 setlinejoin
0 setlinecap
0 0 m
-3.5 0 l

gsave
0.000 setgray
fill
grestore
stroke
grestore
} bind def
57.6 80.352 o
grestore
gsave
44.240625 76.555125 translate
0.000000 rotate
0.000000 0.000000 m /six glyphshow
grestore
gsave
/o {
gsave
newpath
translate
0.8 setlinewidth
1 setlinejoin
0 setlinecap
0 0 m
-3.5 0 l

gsave
0.000 setgray
fill
grestore
stroke
grestore
} bind def
57.6 110.592 o
grestore
gsave
44.240625 106.795125 translate
0.000000 rotate
0.000000 0.000000 m /eight glyphshow
grestore
gsave
/o {
gsave
newpath
translate
0.8 setlinewidth
1 setlinejoin
0 setlinecap
0 0 m
-3.5 0 l

gsave
0.000 setgray
fill
grestore
stroke
grestore
} bind def
57.6 140.832 o
grestore
gsave
37.881250 137.035125 translate
0.000000 rotate
0.000000 0.000000 m /one glyphshow
6.362305 0.000000 m /zero glyphshow
grestore
gsave
/o {
gsave
newpath
translate
0.8 setlinewidth
1 setlinejoin
0 setlinecap
0 0 m
-3.5 0 l

gsave
0.000 setgray
fill
grestore
stroke
grestore
} bind def
57.6 171.072 o
grestore
gsave
37.881250 167.275125 translate
0.000000 rotate
0.000000 0.000000 m /one glyphshow
6.362305 0.000000 m /two glyphshow
grestore
gsave
/o {
gsave
newpath
translate
0.8 setlinewidth
1 setlinejoin
0 setlinecap
0 0 m
-3.5 0 l

gsave
0.000 setgray
fill
grestore
stroke
grestore
} bind def
57.6 201.312 o
grestore
gsave
37.881250 197.515125 translate
0.000000 rotate
0.000000 0.000000 m /one glyphshow
6.362305 0.000000 m /four glyphshow
grestore
gsave
/o {
gsave
newpath
translate
0.8 setlinewidth
1 setlinejoin
0 setlinecap
0 0 m
-3.5 0 l

gsave
0.000 setgray
fill
grestore
stroke
grestore
} bind def
57.6 231.552 o
grestore
gsave
37.881250 227.755125 translate
0.000000 rotate
0.000000 0.000000 m /one glyphshow
6.362305 0.000000 m /six glyphshow
grestore
gsave
/o {
gsave
newpath
translate
0.8 setlinewidth
1 setlinejoin
0 setlinecap
0 0 m
-3.5 0 l

gsave
0.000 setgray
fill
grestore
stroke
grestore
} bind def
57.6 261.792 o
grestore
gsave
37.881250 257.995125 translate
0.000000 rotate
0.000000 0.000000 m /one glyphshow
6.362305 0.000000 m /eight glyphshow
grestore
gsave
/o {
gsave
newpath
translate
0.8 setlinewidth
1 setlinejoin
0 setlinecap
0 0 m
-3.5 0 l

gsave
0.000 setgray
fill
grestore
stroke
grestore
} bind def
57.6 292.032 o
grestore
gsave
37.881250 288.235125 translate
0.000000 rotate
0.000000 0.000000 m /two glyphshow
6.362305 0.000000 m /zero glyphshow
grestore
gsave
31.803125 119.251687 translate
90.000000 rotate
0.000000 0.000000 m /Q glyphshow
7.871094 0.000000 m /u glyphshow
14.208984 0.000000 m /e glyphshow
20.361328 0.000000 m /u glyphshow
26.699219 0.000000 m /e glyphshow
32.851562 0.000000 m /space glyphshow
36.030273 0.000000 m /C glyphshow
43.012695 0.000000 m /a glyphshow
49.140625 0.000000 m /p glyphshow
55.488281 0.000000 m /a glyphshow
61.616211 0.000000 m /c glyphshow
67.114258 0.000000 m /i glyphshow
69.892578 0.000000 m /t glyphshow
73.813477 0.000000 m /y glyphshow
79.731445 0.000000 m /parenleft glyphshow
83.632812 0.000000 m /p glyphshow
89.980469 0.000000 m /k glyphshow
95.771484 0.000000 m /t glyphshow
99.692383 0.000000 m /parenright glyphshow
grestore
1.500 setlinewidth
[5.55 2.4] 0 setdash
1.000 0.000 0.000 setrgbcolor
gsave
357.1 266.1 57.6 38.02 clipbox
86.426714 125.712 m
90.231197 246.672 l
94.103896 65.232 l
97.893364 246.672 l
101.740424 186.192 l
105.555626 246.672 l
109.380136 276.912 l
113.224834 216.432 l
117.041068 276.912 l
120.887097 216.432 l
124.710942 276.912 l
128.556305 186.192 l
132.373204 292.032 l
136.218567 186.192 l
140.042412 276.912 l
143.888455 155.952 l
147.704675 276.912 l
151.561945 125.712 l
155.373883 246.672 l
159.245363 65.232 l
163.03548 246.672 l
166.890817 155.952 l
170.698312 246.672 l
174.522253 276.912 l
178.366951 216.432 l
182.183754 276.912 l
186.029782 216.432 l
189.846017 292.032 l
193.698422 186.192 l
197.515225 276.912 l
201.361253 186.192 l
205.184529 276.912 l
209.030482 155.952 l
212.847361 276.912 l
216.700445 125.712 l
220.508958 276.912 l
224.385681 65.232 l
228.178166 246.672 l
232.038847 155.952 l
235.840429 246.672 l
239.67198 246.672 l
243.509637 216.432 l
247.325871 276.912 l
251.171899 216.432 l
254.988038 276.912 l
258.841108 186.192 l
262.657342 276.912 l
266.50337 186.192 l
270.327215 276.912 l
274.173258 155.952 l
277.988813 276.912 l
281.837817 155.952 l
285.651644 276.912 l
289.523759 65.232 l
293.320283 246.672 l
297.183326 125.712 l
300.983115 246.672 l
304.814097 246.672 l
308.651754 216.432 l
312.468557 276.912 l
316.314585 216.432 l
320.130155 276.912 l
323.983224 186.192 l
327.800028 276.912 l
331.645391 186.192 l
335.469332 276.912 l
339.315284 155.952 l
343.131499 276.912 l
346.977542 155.952 l
350.793761 276.912 l
354.660234 95.472 l
358.462969 246.672 l
362.33315 95.472 l
366.125231 246.672 l
369.956798 246.672 l
373.79444 216.432 l
377.610674 276.912 l
381.456037 216.432 l
385.272841 276.912 l
389.118869 216.432 l
392.942145 276.912 l
stroke
grestore
2 setlinecap
[] 0 setdash
0.000 0.000 1.000 setrgbcolor
gsave
357.1 266.1 57.6 38.02 clipbox
73.832727 50.112 m
80.136047 50.112 l
95.896009 50.112 l
108.503978 50.112 l
124.26394 50.112 l
136.871909 50.112 l
152.631871 50.112 l
165.23984 50.112 l
180.999802 50.112 l
196.759763 50.112 l
209.367733 50.112 l
225.127694 50.112 l
237.735664 50.112 l
253.495625 50.112 l
266.103595 50.112 l
281.863556 50.112 l
297.623518 50.112 l
310.231487 50.112 l
325.991449 50.112 l
338.599418 50.112 l
354.35938 50.112 l
366.967349 50.112 l
382.727311 50.112 l
398.487273 50.112 l
stroke
grestore
0.800 setlinewidth
0 setlinejoin
[] 0 setdash
0.000 setgray
gsave
57.6 38.016 m
57.6 304.128 l
stroke
grestore
gsave
414.72 38.016 m
414.72 304.128 l
stroke
grestore
gsave
57.6 38.016 m
414.72 38.016 l
stroke
grestore
gsave
57.6 304.128 m
414.72 304.128 l
stroke
grestore
/DejaVuSans findfont
12.000 scalefont
setfont
gsave
138.167812 310.128000 translate
0.000000 rotate
0.000000 0.000000 m /T glyphshow
7.330078 0.000000 m /C glyphshow
15.708984 0.000000 m /P glyphshow
22.945312 0.000000 m /space glyphshow
26.759766 0.000000 m /v glyphshow
33.861328 0.000000 m /s glyphshow
40.113281 0.000000 m /space glyphshow
43.927734 0.000000 m /D glyphshow
53.167969 0.000000 m /C glyphshow
61.546875 0.000000 m /T glyphshow
68.876953 0.000000 m /C glyphshow
77.255859 0.000000 m /P glyphshow
84.492188 0.000000 m /space glyphshow
88.306641 0.000000 m /Q glyphshow
97.751953 0.000000 m /u glyphshow
105.357422 0.000000 m /e glyphshow
112.740234 0.000000 m /u glyphshow
120.345703 0.000000 m /e glyphshow
127.728516 0.000000 m /space glyphshow
131.542969 0.000000 m /o glyphshow
138.884766 0.000000 m /c glyphshow
145.482422 0.000000 m /c glyphshow
152.080078 0.000000 m /u glyphshow
159.685547 0.000000 m /p glyphshow
167.302734 0.000000 m /a glyphshow
174.656250 0.000000 m /n glyphshow
182.261719 0.000000 m /c glyphshow
188.859375 0.000000 m /y glyphshow
grestore
1.000 setlinewidth
0 setlinecap
0.800 setgray
gsave
341.9075 154.900125 m
407.72 154.900125 l
409.053333 154.900125 409.72 155.566792 409.72 156.900125 c
409.72 185.243875 l
409.72 186.577208 409.053333 187.243875 407.72 187.243875 c
341.9075 187.243875 l
340.574167 187.243875 339.9075 186.577208 339.9075 185.243875 c
339.9075 156.900125 l
339.9075 155.566792 340.574167 154.900125 341.9075 154.900125 c
cl
gsave
1.000 setgray
fill
grestore
stroke
grestore
1.500 setlinewidth
1 setlinejoin
[5.55 2.4] 0 setdash
1.000 0.000 0.000 setrgbcolor
gsave
343.9075 179.150125 m
363.9075 179.150125 l
stroke
grestore
0.000 setgray
/DejaVuSans findfont
10.000 scalefont
setfont
gsave
371.907500 175.650125 translate
0.000000 rotate
0.000000 0.000000 m /T glyphshow
6.108398 0.000000 m /C glyphshow
13.090820 0.000000 m /P glyphshow
grestore
2 setlinecap
[] 0 setdash
0.000 0.000 1.000 setrgbcolor
gsave
343.9075 164.47825 m
363.9075 164.47825 l
stroke
grestore
0.000 setgray
gsave
371.907500 160.978250 translate
0.000000 rotate
0.000000 0.000000 m /D glyphshow
7.700195 0.000000 m /C glyphshow
14.682617 0.000000 m /T glyphshow
20.791016 0.000000 m /C glyphshow
27.773438 0.000000 m /P glyphshow
grestore

end
showpage
